%YAML 1.1
%TAG !u! tag:unity3d.com,2011:
--- !u!114 &11400000
MonoBehaviour:
  m_ObjectHideFlags: 0
  m_CorrespondingSourceObject: {fileID: 0}
  m_PrefabInstance: {fileID: 0}
  m_PrefabAsset: {fileID: 0}
  m_GameObject: {fileID: 0}
  m_Enabled: 1
  m_EditorHideFlags: 0
  m_Script: {fileID: 11500000, guid: a8c8e80d0faa9478ab7d1e02202ab1d5, type: 3}
  m_Name: Stage0801Data
  m_EditorClassIdentifier: 
  stageNo1: 8
  stageNo2: 1
  clearItem: 01000000020000000300000004000000
  clearItemCount: 04000000040000000400000004000000
  extraClearItem: 4
  fieldDataYList:
  - fieldDataXList: 000000000000000000000000000000000000000000000000000000000000000000000000000000000000000000000000000000000000000000000000000000000000000000000000000000000000000000000000000000000000000000000000000000000000000000000000
  - fieldDataXList: 000000000000000000000000000000000000000000000000000000000000000000000000000000000000000000000000000000000000000000000000000000000000000000000000000000000000000000000000000000000000000000000000000000000000000000000000
  - fieldDataXList: 000000000000000000000000000000000000000000000000000000000000000000000000000000000000000000000000000000000000000000000000000000000000000000000000000000000000000000000000000000000000000000000000000000000000000000000000
  - fieldDataXList: 000000000000000000000000000000000000000000000000000000000000000000000000000000000000000000000000000000000000000000000000000000000000000000000000000000000000000000000000000000000000000000000000000000000000000000000000
  - fieldDataXList: 000000000000000000000000000000000000000000000000000000000000000000000000000000000000000000000000000000000000000000000000000000000000000000000000000000000000000000000000000000000000000000000000000000000000000000000000
  - fieldDataXList: 000000000000000000000000000000000000000000000000000000000000000000000000000000000000000000000000000000000000000000000000000000000000000000000000000000000000000000000000000000000000000000000000000000000000000000000000
  - fieldDataXList: 000000000000000000000000000000000000000000000000000000000000000000000000000000000000000000000000000000000000000000000000000000000000000000000000000000000000000000000000000000000000000000000000000000000000000000000000
  - fieldDataXList: 000000000000000000000000000000000000000000000000000000000000000000000000000000000000000000000000000000000000000000000000000000000000000000000000000000000000000000000000000000000000000000000000000000000000000000000000
  - fieldDataXList: 000000000000000000000000000000000000000000000000000000000000000000000000000000000000000000000000000000000000000000000000000000000000000000000000000000000000000000000000000000000000000000000000000000000000000000000000
  - fieldDataXList: 000000000000000000000000000000000000000000000000000000000000000000000000000000000000000000000000000000000100000001000000010000000100000001000000010000000700000000000000000000000000000000000000000000000000000000000000
  - fieldDataXList: 000000000000000000000000000000000000000000000000000000000000000000000000000000000000000000000000000000000100000000000000000000000000000000000000080000000100000000000000000000000000000000000000000000000000000000000000
  - fieldDataXList: 000000000000000000000000000000000000000000000000000000000000000000000000000000000000000000000000000000000100000000000000000000000000000000000000000000000100000000000000000000000000000000000000000000000000000000000000
  - fieldDataXList: 000000000000000000000000000000000000000000000000000000000000000000000000000000000000000000000000000000000100000000000000000000006400000000000000000000000100000000000000000000000000000000000000000000000000000000000000
  - fieldDataXList: 000000000000000000000000000000000000000000000000000000000000000000000000000000000000000000000000000000000100000000000000000000000000000000000000000000000100000000000000000000000000000000000000000000000000000000000000
  - fieldDataXList: 000000000000000000000000000000000000000000000000000000000000000000000000000000000000000000000000080000000100000000000000000000000000000000000000000000000100000000000000000000000000000000000000000000000000000000000000
  - fieldDataXList: 00000000000000000000000000000000000000000000000001000000010000000100000001000000010000000100000001000000ffffffff01000000010000000100000001000000010000000100000000000000000000000000000000000000000000000000000000000000
  - fieldDataXList: 000000000000000000000000000000000000000000000000010000000000000000000000000000000000000000000000000000000100000008000000000000000000000000000000000000000000000000000000000000000000000000000000000000000000000000000000
  - fieldDataXList: 000000000000000000000000000000000000000000000000010000000000000000000000000000000000000000000000000000000100000000000000000000000000000000000000000000000000000000000000000000000000000000000000000000000000000000000000
  - fieldDataXList: 000000000000000000000000000000000000000000000000010000000000000000000000000000000000000000000000000000000100000000000000000000000000000000000000000000000000000000000000000000000000000000000000000000000000000000000000
  - fieldDataXList: 000000000000000000000000000000000000000000000000010000000000000000000000000000000000000000000000000000000100000000000000000000000000000000000000000000000000000000000000000000000000000000000000000000000000000000000000
  - fieldDataXList: 000000000000000000000000000000000000000000000000010000000000000000000000000000000000000000000000000000000100000000000000000000000000000000000000000000000000000000000000000000000000000000000000000000000000000000000000
  - fieldDataXList: 000000000000000000000000000000000000000000000000010000000000000000000000000000000000000000000000000000000100000000000000000000000000000000000000000000000000000000000000000000000000000000000000000000000000000000000000
  - fieldDataXList: 000000000000000000000000000000000000000000000000070000000100000001000000010000000100000001000000010000000100000000000000000000000000000000000000000000000000000000000000000000000000000000000000000000000000000000000000
  - fieldDataXList: 000000000000000000000000000000000000000000000000000000000000000000000000000000000000000000000000000000000000000000000000000000000000000000000000000000000000000000000000000000000000000000000000000000000000000000000000
  - fieldDataXList: 000000000000000000000000000000000000000000000000000000000000000000000000000000000000000000000000000000000000000000000000000000000000000000000000000000000000000000000000000000000000000000000000000000000000000000000000
  - fieldDataXList: 000000000000000000000000000000000000000000000000000000000000000000000000000000000000000000000000000000000000000000000000000000000000000000000000000000000000000000000000000000000000000000000000000000000000000000000000
  - fieldDataXList: 000000000000000000000000000000000000000000000000000000000000000000000000000000000000000000000000000000000000000000000000000000000000000000000000000000000000000000000000000000000000000000000000000000000000000000000000
  - fieldDataXList: 000000000000000000000000000000000000000000000000000000000000000000000000000000000000000000000000000000000000000000000000000000000000000000000000000000000000000000000000000000000000000000000000000000000000000000000000
  - fieldDataXList: 000000000000000000000000000000000000000000000000000000000000000000000000000000000000000000000000000000000000000000000000000000000000000000000000000000000000000000000000000000000000000000000000000000000000000000000000
  - fieldDataXList: 000000000000000000000000000000000000000000000000000000000000000000000000000000000000000000000000000000000000000000000000000000000000000000000000000000000000000000000000000000000000000000000000000000000000000000000000
  - fieldDataXList: 000000000000000000000000000000000000000000000000000000000000000000000000000000000000000000000000000000000000000000000000000000000000000000000000000000000000000000000000000000000000000000000000000000000000000000000000
  - fieldDataXList: 000000000000000000000000000000000000000000000000000000000000000000000000000000000000000000000000000000000000000000000000000000000000000000000000000000000000000000000000000000000000000000000000000000000000000000000000
  BackgroundPrefab: {fileID: 1958345069186864056, guid: 94d6c09c377ca475dadb13fa69bc0035,
    type: 3}
  DiceCount: 20
  RandomMapClearRouteTileCountMin: 40
  RandomMapClearRouteDistanceMax: 70
  RandomMapItemCountMaxInTile: 1
  RandomMapEnemyCount: 0
  RandomMapSpecailCount: 3
  RandomMapRandomItemCount: 3
  BGMclip: {fileID: 8300000, guid: 4544b4534ca3a434c972235dffe748fc, type: 3}
  setenemynumber: 0
  RandomMapBranchDensity: 2
  RandomMapStraightDistanceMin: 3
  RandomMapStraightDistanceMax: 6
  RandomSpotsObjects: []
  RandomClusterObjects: []
